test/waveform.vcd
$date
	Fri May 03 12:08:29 2024
$end
$version
	Icarus Verilog
$end
$timescale
	1s
$end
$scope module fpAluTest $end
$scope module dut $end
$var wire 32 ! a [31:0] $end
$var wire 32 " b [31:0] $end
$var wire 1 # cpu_clk $end
$var wire 1 $ fp_clk $end
$var wire 1 % int_clk $end
$var wire 3 & selector [2:0] $end
$var wire 1 ' sqrt_clk $end
$var wire 32 ( sqrtOut [31:0] $end
$var wire 32 ) multOut [31:0] $end
$var wire 32 * divideOut [31:0] $end
$var wire 32 + addOut [31:0] $end
$var parameter 3 , FPU_ADD $end
$var parameter 3 - FPU_DIV $end
$var parameter 3 . FPU_MUL $end
$var parameter 3 / SQRT $end
$var reg 32 0 out [31:0] $end
$scope module fpadd $end
$var wire 32 1 A [31:0] $end
$var wire 32 2 B [31:0] $end
$var wire 25 3 sum [24:0] $end
$var wire 1 4 signB $end
$var wire 1 5 signA $end
$var wire 23 6 outFrac [22:0] $end
$var wire 8 7 largerExp [7:0] $end
$var wire 23 8 fracB [22:0] $end
$var wire 23 9 fracA [22:0] $end
$var wire 8 : expB [7:0] $end
$var wire 8 ; expA [7:0] $end
$var wire 24 < coeffB [23:0] $end
$var wire 24 = coeffA [23:0] $end
$var wire 32 > Out [31:0] $end
$var wire 24 ? Bshifted [23:0] $end
$var wire 24 @ Ashifted [23:0] $end
$var wire 1 A AltB $end
$upscope $end
$scope module fpdivide $end
$var wire 32 B A [31:0] $end
$var wire 32 C B [31:0] $end
$var wire 1 $ fp_clk $end
$var wire 1 % int_clk $end
$var wire 1 D not_msb_Q $end
$var wire 1 E out_sign $end
$var wire 1 F zero $end
$var wire 8 G out_exp [7:0] $end
$var wire 1 H b_sign $end
$var wire 23 I b_frac [22:0] $end
$var wire 8 J b_exp [7:0] $end
$var wire 1 K a_sign $end
$var wire 23 L a_frac [22:0] $end
$var wire 8 M a_exp [7:0] $end
$var wire 32 N Out [31:0] $end
$var reg 25 O Q [24:0] $end
$var reg 48 P a_reg [47:0] $end
$var reg 48 Q b_reg [47:0] $end
$var reg 23 R out_frac [22:0] $end
$var reg 1 S start $end
$upscope $end
$scope module fpmultiply $end
$var wire 32 T A [31:0] $end
$var wire 32 U B [31:0] $end
$var wire 1 $ fp_clk $end
$var wire 1 % int_clk $end
$var wire 1 V sign_out $end
$var wire 1 W signB $end
$var wire 1 X signA $end
$var wire 48 Y product [47:0] $end
$var wire 23 Z frac_out [22:0] $end
$var wire 23 [ fracB [22:0] $end
$var wire 23 \ fracA [22:0] $end
$var wire 8 ] exp_out [7:0] $end
$var wire 8 ^ expB [7:0] $end
$var wire 8 _ expA [7:0] $end
$var wire 24 ` coeffB [23:0] $end
$var wire 24 a coeffA [23:0] $end
$var wire 32 b Out [31:0] $end
$var reg 1 c start $end
$scope module dut $end
$var wire 24 d a [23:0] $end
$var wire 24 e b [23:0] $end
$var wire 1 % clk $end
$var wire 1 c start $end
$var parameter 32 f width $end
$var reg 24 g a_reg [23:0] $end
$var reg 48 h b_reg [47:0] $end
$var reg 48 i product [47:0] $end
$upscope $end
$upscope $end
$scope module fpsqrt $end
$var wire 32 j A [31:0] $end
$var wire 32 k Out [31:0] $end
$var wire 1 # cpu_clk $end
$var wire 1 $ fp_clk $end
$var wire 1 % int_clk $end
$var wire 1 ' sqrt_clk $end
$var wire 32 l sum [31:0] $end
$var wire 32 m shifted [31:0] $end
$var wire 32 n ratio [31:0] $end
$var parameter 32 o STAB_THRESHOLD $end
$var reg 32 p a_reg [31:0] $end
$var reg 32 q prev_sqa [31:0] $end
$var reg 32 r sqa [31:0] $end
$var reg 1 s start $end
$scope module fadd $end
$var wire 32 t B [31:0] $end
$var wire 25 u sum [24:0] $end
$var wire 1 v signB $end
$var wire 1 w signA $end
$var wire 23 x outFrac [22:0] $end
$var wire 8 y largerExp [7:0] $end
$var wire 23 z fracB [22:0] $end
$var wire 23 { fracA [22:0] $end
$var wire 8 | expB [7:0] $end
$var wire 8 } expA [7:0] $end
$var wire 24 ~ coeffB [23:0] $end
$var wire 24 !" coeffA [23:0] $end
$var wire 32 "" Out [31:0] $end
$var wire 24 #" Bshifted [23:0] $end
$var wire 24 $" Ashifted [23:0] $end
$var wire 1 %" AltB $end
$var wire 32 &" A [31:0] $end
$upscope $end
$scope module fdiv $end
$var wire 32 '" A [31:0] $end
$var wire 32 (" B [31:0] $end
$var wire 1 $ fp_clk $end
$var wire 1 % int_clk $end
$var wire 1 )" not_msb_Q $end
$var wire 1 *" out_sign $end
$var wire 1 +" zero $end
$var wire 8 ," out_exp [7:0] $end
$var wire 1 -" b_sign $end
$var wire 23 ." b_frac [22:0] $end
$var wire 8 /" b_exp [7:0] $end
$var wire 1 0" a_sign $end
$var wire 23 1" a_frac [22:0] $end
$var wire 8 2" a_exp [7:0] $end
$var wire 32 3" Out [31:0] $end
$var reg 25 4" Q [24:0] $end
$var reg 48 5" a_reg [47:0] $end
$var reg 48 6" b_reg [47:0] $end
$var reg 23 7" out_frac [22:0] $end
$var reg 1 8" start $end
$upscope $end
$upscope $end
$upscope $end
$upscope $end
$enddefinitions $end
$comment Show the parameter values. $end
$dumpall
b1 o
b11000 f
b11 /
b1 .
b10 -
b0 ,
$end
#0
$dumpvars
x8"
bx 7"
bx 6"
bx 5"
bx 4"
bx 3"
bx 2"
bx 1"
x0"
b1111111 /"
b0 ."
0-"
bx ,"
x+"
x*"
x)"
b111111100000000000000000000000 ("
bx '"
bx &"
x%"
bx $"
bx #"
b0xxxxxxxxxxxxxxxxxxxxxxxxxxxxxxx ""
b1xxxxxxxxxxxxxxxxxxxxxxx !"
b100000000000000000000000 ~
bx }
b1111111 |
bx {
b0 z
bx y
bx x
xw
0v
bx u
b111111100000000000000000000000 t
xs
b111111100000000000000000000000 r
b0 q
bx p
bx n
b0xxxxxxxxxxxxxxxxxxxxxxxxxxxxxxx m
b0xxxxxxxxxxxxxxxxxxxxxxxxxxxxxxx l
b111111100000000000000000000000 k
bx j
bx i
bx h
bx g
b1xxxxxxxxxxxxxxxxxxxxxxx e
b1xxxxxxxxxxxxxxxxxxxxxxx d
xc
bx b
b1xxxxxxxxxxxxxxxxxxxxxxx a
b1xxxxxxxxxxxxxxxxxxxxxxx `
bx _
bx ^
bx ]
bx \
bx [
bx Z
bx Y
xX
xW
xV
bx U
bx T
xS
bx R
bx Q
bx P
bx O
bx N
bx M
bx L
xK
bx J
bx I
xH
bx G
xF
xE
xD
bx C
bx B
xA
bx @
bx ?
b0xxxxxxxxxxxxxxxxxxxxxxxxxxxxxxx >
b1xxxxxxxxxxxxxxxxxxxxxxx =
b1xxxxxxxxxxxxxxxxxxxxxxx <
bx ;
bx :
bx 9
bx 8
bx 7
bx 6
x5
x4
bx 3
bx 2
bx 1
bx 0
b0xxxxxxxxxxxxxxxxxxxxxxxxxxxxxxx +
bx *
bx )
b111111100000000000000000000000 (
x'
bx &
x%
0$
x#
bx "
bx !
$end
#5
1S
1c
18"
b11000000000000000000000 6
b1000000111000000000000000000000 +
b1000000111000000000000000000000 >
b0xxxxxxxxxxxxxxxxxxxxxxxxxxxxxxx 0
0w
b111000000000000000000000 3
b10000000000000000000000 ?
b10000001 7
b101000000000000000000000 @
b0xxxxxxxxxxxxxxxxxxxxxxxxxxxxxxx *
b0xxxxxxxxxxxxxxxxxxxxxxxxxxxxxxx N
0E
b0xxxxxxxxxxxxxxxxxxxxxxxxxxxxxxx )
b0xxxxxxxxxxxxxxxxxxxxxxxxxxxxxxx b
0V
b0xxxxxxxxxxxxxxxxxxxxxxxxxxxxxxx n
b0xxxxxxxxxxxxxxxxxxxxxxxxxxxxxxx &"
b0xxxxxxxxxxxxxxxxxxxxxxxxxxxxxxx 3"
0*"
04
0A
b10000000 :
b100000000000000000000000 <
b0 8
0H
b10000000 J
b0 I
0W
b10000000 ^
b100000000000000000000000 `
b100000000000000000000000 e
b0 [
05
b10000001 ;
b101000000000000000000000 =
b1000000000000000000000 9
0K
b10000001 M
b1000000000000000000000 L
0X
b10000001 _
b101000000000000000000000 a
b101000000000000000000000 d
b1000000000000000000000 \
00"
b10000001 2"
b1000000000000000000000 1"
b1 &
b1000000000000000000000000000000 "
b1000000000000000000000000000000 2
b1000000000000000000000000000000 C
b1000000000000000000000000000000 U
b1000000101000000000000000000000 !
b1000000101000000000000000000000 1
b1000000101000000000000000000000 B
b1000000101000000000000000000000 T
b1000000101000000000000000000000 j
b1000000101000000000000000000000 '"
0%
1$
#10
b1xxxxxxxxxxxxxxxxxxxxxxx $"
b10000000000000000000000 #"
b10000000 y
0%"
b10000000 }
b1111111xxxxxxxxxxxxxxxxxxxxxxx *
b1111111xxxxxxxxxxxxxxxxxxxxxxx N
b1111111 G
1D
b1000001000000000000000000000000 0
b0 Z
b10000000xxxxxxxxxxxxxxxxxxxxxxx n
b10000000xxxxxxxxxxxxxxxxxxxxxxx &"
b10000000xxxxxxxxxxxxxxxxxxxxxxx 3"
b10000000 ,"
1)"
0F
b1000001000000000000000000000000 )
b1000001000000000000000000000000 b
b10000010 ]
0+"
b0 O
b101000000000000000000000000000000000000000000000 P
b100000000000000000000000000000000000000000000000 Q
0S
b0 Y
b0 i
b100000000000000000000000 h
b101000000000000000000000 g
0c
b0 4"
b101000000000000000000000000000000000000000000000 5"
b100000000000000000000000000000000000000000000000 6"
08"
1%
#15
0%
#20
b10000000000000000000000 x
b111111110000000000000000000000 m
b1000000010000000000000000000000 l
b1000000010000000000000000000000 ""
b110000000000000000000000 u
b100000000000000000000000 $"
b100000000000000000000000 !"
b0 {
b1000000000000000000000000000000 n
b1000000000000000000000000000000 &"
b1000000000000000000000000000000 3"
b0 7"
b10000000000000000000000000000000000000000000000 6"
b1 4"
b1000000000000000000000000000000000000000000000 5"
b1000000000000000000000000 h
b10100000000000000000000 g
b111111100000000000000000000000 *
b111111100000000000000000000000 N
b0 R
b10000000000000000000000000000000000000000000000 Q
b1 O
b1000000000000000000000000000000000000000000000 P
1%
#25
0%
#30
b111111110000000000000000000001 m
b1000000010000000000000000000001 l
b1000000010000000000000000000001 ""
b10000000000000000000001 x
b110000000000000000000001 u
b100000000000000000000001 $"
b100000000000000000000001 !"
b1 {
b111111100000000000000000000001 *
b111111100000000000000000000001 N
b1 R
b1000000000000000000000000000000000000000000000 Q
b10 O
b10000000000000000000000000 h
b1010000000000000000000 g
b1000000000000000000000000000001 n
b1000000000000000000000000000001 &"
b1000000000000000000000000000001 3"
b1 7"
b1000000000000000000000000000000000000000000000 6"
b10 4"
1%
#35
0%
#40
b111111110000000000000000000010 m
b1000000010000000000000000000010 l
b1000000010000000000000000000010 ""
b10000000000000000000010 x
b110000000000000000000010 u
b100000000000000000000010 $"
b100000000000000000000010 !"
b10 {
b1000000000000000000000000000010 n
b1000000000000000000000000000010 &"
b1000000000000000000000000000010 3"
b10 7"
b100000000000000000000000000000000000000000000 6"
b101 4"
b0 5"
b100000000000000000000000000 h
b101000000000000000000 g
b111111100000000000000000000010 *
b111111100000000000000000000010 N
b10 R
b100000000000000000000000000000000000000000000 Q
b101 O
b0 P
1%
#45
0%
#50
b111111110000000000000000000101 m
b1000000010000000000000000000101 l
b1000000010000000000000000000101 ""
b10000000000000000000101 x
b110000000000000000000101 u
b100000000000000000000101 $"
b100000000000000000000101 !"
b101 {
b111111100000000000000000000101 *
b111111100000000000000000000101 N
b101 R
b10000000000000000000000000000000000000000000 Q
b1010 O
b1000000000000000000000000000 h
b10100000000000000000 g
b1000000000000000000000000000101 n
b1000000000000000000000000000101 &"
b1000000000000000000000000000101 3"
b101 7"
b10000000000000000000000000000000000000000000 6"
b1010 4"
1%
#55
0%
#60
b111111110000000000000000001010 m
b1000000010000000000000000001010 l
b1000000010000000000000000001010 ""
b10000000000000000001010 x
b110000000000000000001010 u
b100000000000000000001010 $"
b100000000000000000001010 !"
b1010 {
b1000000000000000000000000001010 n
b1000000000000000000000000001010 &"
b1000000000000000000000000001010 3"
b1010 7"
b1000000000000000000000000000000000000000000 6"
b10100 4"
b10000000000000000000000000000 h
b1010000000000000000 g
b111111100000000000000000001010 *
b111111100000000000000000001010 N
b1010 R
b1000000000000000000000000000000000000000000 Q
b10100 O
1%
#65
0%
#70
b111111110000000000000000010100 m
b1000000010000000000000000010100 l
b1000000010000000000000000010100 ""
b10000000000000000010100 x
b110000000000000000010100 u
b100000000000000000010100 $"
b100000000000000000010100 !"
b10100 {
b111111100000000000000000010100 *
b111111100000000000000000010100 N
b10100 R
b100000000000000000000000000000000000000000 Q
b101000 O
b100000000000000000000000000000 h
b101000000000000000 g
b1000000000000000000000000010100 n
b1000000000000000000000000010100 &"
b1000000000000000000000000010100 3"
b10100 7"
b100000000000000000000000000000000000000000 6"
b101000 4"
1%
#75
0%
#80
b111111110000000000000000101000 m
b1000000010000000000000000101000 l
b1000000010000000000000000101000 ""
b10000000000000000101000 x
b110000000000000000101000 u
b100000000000000000101000 $"
b100000000000000000101000 !"
b101000 {
b1000000000000000000000000101000 n
b1000000000000000000000000101000 &"
b1000000000000000000000000101000 3"
b101000 7"
b10000000000000000000000000000000000000000 6"
b1010000 4"
b1000000000000000000000000000000 h
b10100000000000000 g
b111111100000000000000000101000 *
b111111100000000000000000101000 N
b101000 R
b10000000000000000000000000000000000000000 Q
b1010000 O
1%
#85
0%
#90
b111111110000000000000001010000 m
b1000000010000000000000001010000 l
b1000000010000000000000001010000 ""
b10000000000000001010000 x
b110000000000000001010000 u
b100000000000000001010000 $"
b100000000000000001010000 !"
b1010000 {
b111111100000000000000001010000 *
b111111100000000000000001010000 N
b1010000 R
b1000000000000000000000000000000000000000 Q
b10100000 O
b10000000000000000000000000000000 h
b1010000000000000 g
b1000000000000000000000001010000 n
b1000000000000000000000001010000 &"
b1000000000000000000000001010000 3"
b1010000 7"
b1000000000000000000000000000000000000000 6"
b10100000 4"
1%
#95
0%
#100
b111111110000000000000010100000 m
b1000000010000000000000010100000 l
b1000000010000000000000010100000 ""
b10000000000000010100000 x
b110000000000000010100000 u
b100000000000000010100000 $"
b100000000000000010100000 !"
b10100000 {
b1000000000000000000000010100000 n
b1000000000000000000000010100000 &"
b1000000000000000000000010100000 3"
b10100000 7"
b100000000000000000000000000000000000000 6"
b101000000 4"
b100000000000000000000000000000000 h
b101000000000000 g
b111111100000000000000010100000 *
b111111100000000000000010100000 N
b10100000 R
b100000000000000000000000000000000000000 Q
b101000000 O
1%
#105
0%
#110
b111111110000000000000101000000 m
b1000000010000000000000101000000 l
b1000000010000000000000101000000 ""
b10000000000000101000000 x
b110000000000000101000000 u
b100000000000000101000000 $"
b100000000000000101000000 !"
b101000000 {
b111111100000000000000101000000 *
b111111100000000000000101000000 N
b101000000 R
b10000000000000000000000000000000000000 Q
b1010000000 O
b1000000000000000000000000000000000 h
b10100000000000 g
b1000000000000000000000101000000 n
b1000000000000000000000101000000 &"
b1000000000000000000000101000000 3"
b101000000 7"
b10000000000000000000000000000000000000 6"
b1010000000 4"
1%
#115
0%
#120
b111111110000000000001010000000 m
b1000000010000000000001010000000 l
b1000000010000000000001010000000 ""
b10000000000001010000000 x
b110000000000001010000000 u
b100000000000001010000000 $"
b100000000000001010000000 !"
b1010000000 {
b1000000000000000000001010000000 n
b1000000000000000000001010000000 &"
b1000000000000000000001010000000 3"
b1010000000 7"
b1000000000000000000000000000000000000 6"
b10100000000 4"
b10000000000000000000000000000000000 h
b1010000000000 g
b111111100000000000001010000000 *
b111111100000000000001010000000 N
b1010000000 R
b1000000000000000000000000000000000000 Q
b10100000000 O
1%
#125
0%
#130
b111111110000000000010100000000 m
b1000000010000000000010100000000 l
b1000000010000000000010100000000 ""
b10000000000010100000000 x
b110000000000010100000000 u
b100000000000010100000000 $"
b100000000000010100000000 !"
b10100000000 {
b111111100000000000010100000000 *
b111111100000000000010100000000 N
b10100000000 R
b100000000000000000000000000000000000 Q
b101000000000 O
b100000000000000000000000000000000000 h
b101000000000 g
b1000000000000000000010100000000 n
b1000000000000000000010100000000 &"
b1000000000000000000010100000000 3"
b10100000000 7"
b100000000000000000000000000000000000 6"
b101000000000 4"
1%
#135
0%
#140
b111111110000000000101000000000 m
b1000000010000000000101000000000 l
b1000000010000000000101000000000 ""
b10000000000101000000000 x
b110000000000101000000000 u
b100000000000101000000000 $"
b100000000000101000000000 !"
b101000000000 {
b1000000000000000000101000000000 n
b1000000000000000000101000000000 &"
b1000000000000000000101000000000 3"
b101000000000 7"
b10000000000000000000000000000000000 6"
b1010000000000 4"
b1000000000000000000000000000000000000 h
b10100000000 g
b111111100000000000101000000000 *
b111111100000000000101000000000 N
b101000000000 R
b10000000000000000000000000000000000 Q
b1010000000000 O
1%
#145
0%
#150
b111111110000000001010000000000 m
b1000000010000000001010000000000 l
b1000000010000000001010000000000 ""
b10000000001010000000000 x
b110000000001010000000000 u
b100000000001010000000000 $"
b100000000001010000000000 !"
b1010000000000 {
b111111100000000001010000000000 *
b111111100000000001010000000000 N
b1010000000000 R
b1000000000000000000000000000000000 Q
b10100000000000 O
b10000000000000000000000000000000000000 h
b1010000000 g
b1000000000000000001010000000000 n
b1000000000000000001010000000000 &"
b1000000000000000001010000000000 3"
b1010000000000 7"
b1000000000000000000000000000000000 6"
b10100000000000 4"
1%
#155
0%
#160
b111111110000000010100000000000 m
b1000000010000000010100000000000 l
b1000000010000000010100000000000 ""
b10000000010100000000000 x
b110000000010100000000000 u
b100000000010100000000000 $"
b100000000010100000000000 !"
b10100000000000 {
b1000000000000000010100000000000 n
b1000000000000000010100000000000 &"
b1000000000000000010100000000000 3"
b10100000000000 7"
b100000000000000000000000000000000 6"
b101000000000000 4"
b100000000000000000000000000000000000000 h
b101000000 g
b111111100000000010100000000000 *
b111111100000000010100000000000 N
b10100000000000 R
b100000000000000000000000000000000 Q
b101000000000000 O
1%
#165
0%
#170
b111111110000000101000000000000 m
b1000000010000000101000000000000 l
b1000000010000000101000000000000 ""
b10000000101000000000000 x
b110000000101000000000000 u
b100000000101000000000000 $"
b100000000101000000000000 !"
b101000000000000 {
b111111100000000101000000000000 *
b111111100000000101000000000000 N
b101000000000000 R
b10000000000000000000000000000000 Q
b1010000000000000 O
b1000000000000000000000000000000000000000 h
b10100000 g
b1000000000000000101000000000000 n
b1000000000000000101000000000000 &"
b1000000000000000101000000000000 3"
b101000000000000 7"
b10000000000000000000000000000000 6"
b1010000000000000 4"
1%
#175
0%
#180
b111111110000001010000000000000 m
b1000000010000001010000000000000 l
b1000000010000001010000000000000 ""
b10000001010000000000000 x
b110000001010000000000000 u
b100000001010000000000000 $"
b100000001010000000000000 !"
b1010000000000000 {
b1000000000000001010000000000000 n
b1000000000000001010000000000000 &"
b1000000000000001010000000000000 3"
b1010000000000000 7"
b1000000000000000000000000000000 6"
b10100000000000000 4"
b10000000000000000000000000000000000000000 h
b1010000 g
b111111100000001010000000000000 *
b111111100000001010000000000000 N
b1010000000000000 R
b1000000000000000000000000000000 Q
b10100000000000000 O
1%
#185
0%
#190
b111111110000010100000000000000 m
b1000000010000010100000000000000 l
b1000000010000010100000000000000 ""
b10000010100000000000000 x
b110000010100000000000000 u
b100000010100000000000000 $"
b100000010100000000000000 !"
b10100000000000000 {
b111111100000010100000000000000 *
b111111100000010100000000000000 N
b10100000000000000 R
b100000000000000000000000000000 Q
b101000000000000000 O
b100000000000000000000000000000000000000000 h
b101000 g
b1000000000000010100000000000000 n
b1000000000000010100000000000000 &"
b1000000000000010100000000000000 3"
b10100000000000000 7"
b100000000000000000000000000000 6"
b101000000000000000 4"
1%
#195
0%
#200
b111111110000101000000000000000 m
b1000000010000101000000000000000 l
b1000000010000101000000000000000 ""
b10000101000000000000000 x
b110000101000000000000000 u
b100000101000000000000000 $"
b100000101000000000000000 !"
b101000000000000000 {
b1000000000000101000000000000000 n
b1000000000000101000000000000000 &"
b1000000000000101000000000000000 3"
b101000000000000000 7"
b10000000000000000000000000000 6"
b1010000000000000000 4"
b1000000000000000000000000000000000000000000 h
b10100 g
b111111100000101000000000000000 *
b111111100000101000000000000000 N
b101000000000000000 R
b10000000000000000000000000000 Q
b1010000000000000000 O
1%
#205
0%
#210
b111111110001010000000000000000 m
b1000000010001010000000000000000 l
b1000000010001010000000000000000 ""
b10001010000000000000000 x
b110001010000000000000000 u
b100001010000000000000000 $"
b100001010000000000000000 !"
b1010000000000000000 {
b111111100001010000000000000000 *
b111111100001010000000000000000 N
b1010000000000000000 R
b1000000000000000000000000000 Q
b10100000000000000000 O
b10000000000000000000000000000000000000000000 h
b1010 g
b1000000000001010000000000000000 n
b1000000000001010000000000000000 &"
b1000000000001010000000000000000 3"
b1010000000000000000 7"
b1000000000000000000000000000 6"
b10100000000000000000 4"
1%
#215
0%
#220
b111111110010100000000000000000 m
b1000000010010100000000000000000 l
b1000000010010100000000000000000 ""
b10010100000000000000000 x
b110010100000000000000000 u
b100010100000000000000000 $"
b100010100000000000000000 !"
b10100000000000000000 {
b1000000000010100000000000000000 n
b1000000000010100000000000000000 &"
b1000000000010100000000000000000 3"
b10100000000000000000 7"
b100000000000000000000000000 6"
b101000000000000000000 4"
b100000000000000000000000000000000000000000000 h
b101 g
b111111100010100000000000000000 *
b111111100010100000000000000000 N
b10100000000000000000 R
b100000000000000000000000000 Q
b101000000000000000000 O
1%
#225
0%
#230
b111111110101000000000000000000 m
b1000000010101000000000000000000 l
b1000000010101000000000000000000 ""
b10101000000000000000000 x
b110101000000000000000000 u
b100101000000000000000000 $"
b100101000000000000000000 !"
b101000000000000000000 {
b111111100101000000000000000000 *
b111111100101000000000000000000 N
b101000000000000000000 R
b10000000000000000000000000 Q
b1010000000000000000000 O
b1000000000000000000000000000000000000000000000 h
b10 g
b1000000000101000000000000000000 n
b1000000000101000000000000000000 &"
b1000000000101000000000000000000 3"
b101000000000000000000 7"
b10000000000000000000000000 6"
b1010000000000000000000 4"
b1000001001000000000000000000000 0
b1000001001000000000000000000000 )
b1000001001000000000000000000000 b
b1000000000000000000000 Z
b100000000000000000000000000000000000000000000 Y
b100000000000000000000000000000000000000000000 i
1%
#235
0%
#240
b111111111010000000000000000000 m
b1000000011010000000000000000000 l
b1000000011010000000000000000000 ""
b11010000000000000000000 x
b111010000000000000000000 u
b101010000000000000000000 $"
b101010000000000000000000 !"
b1010000000000000000000 {
b1000000001010000000000000000000 n
b1000000001010000000000000000000 &"
b1000000001010000000000000000000 3"
b1010000000000000000000 7"
b1000000000000000000000000 6"
b10100000000000000000000 4"
b10000000000000000000000000000000000000000000000 h
b1 g
b111111101010000000000000000000 *
b111111101010000000000000000000 N
b1010000000000000000000 R
b1000000000000000000000000 Q
b10100000000000000000000 O
1%
#245
0%
#250
b10000000000000000000 x
b1000000000010000000000000000000 m
b1000000100010000000000000000000 l
b1000000100010000000000000000000 ""
b1000100000000000000000000 u
b110100000000000000000000 $"
b110100000000000000000000 !"
b10100000000000000000000 {
b111111110100000000000000000000 *
b111111110100000000000000000000 N
b10100000000000000000000 R
b100000000000000000000000 Q
b101000000000000000000000 O
b100000000000000000000000000000000000000000000000 h
b0 g
b1000000010100000000000000000000 n
b1000000010100000000000000000000 &"
b1000000010100000000000000000000 3"
b10100000000000000000000 7"
b100000000000000000000000 6"
b101000000000000000000000 4"
b10100000000000000000000000000000000000000000000 Y
b10100000000000000000000000000000000000000000000 i
1%
#255
0%
#260
b1000000010000000000000000000000 m
b10000000000000000000000 x
b1000000000000000000000 #"
b10000001 y
b1000000110000000000000000000000 l
b1000000110000000000000000000000 ""
b10000001 }
b110000000000000000000000 u
b101000000000000000000000 $"
b10000001 ,"
0)"
b10000000 G
0D
b101000000000000000000000 !"
b1000000000000000000000 {
1+"
1F
b1000000101000000000000000000000 n
b1000000101000000000000000000000 &"
b1000000101000000000000000000000 3"
b1000000000000000000000 7"
b10000000000000000000000 6"
b1010000000000000000000000 4"
b0 h
b1000000001000000000000000000000 *
b1000000001000000000000000000000 N
b1000000000000000000000 R
b10000000000000000000000 Q
b1010000000000000000000000 O
1%
